0111000000000000
0000000000001000
0000000000100000
0000000000010000
0000000000001000
0000000000000000
0000000000000000
0000000000000000
0000000000000000
0001000100001101
0001000100010110
0001001000000011
0000000000000010
0001000000000100
0000000010000000
0010000000000011
0000000011111111
0011000000010011
0011000100110111
0101000000010011
0101001000011100
0101000100100101
0101001100101110
0101010000001001
0101011000010010
0101010100011011
0111000000000000
0000000000010000
0111000100000000
0000000011101110
0111001000000000
0000000011011101
0111001100000000
1011010000000000
